[
 {"storeCode": 143441, "country3": "USA", "country2": "US", "language2": "EN", "language": "English", "season": "season", "country": "USA", "cast": "Cast", "director": "Director", "producer": "Producers", "screenwriter": "Screenwriter", "studio": "Studio", "copyright": "Copyright"},
 {"storeCode": 143460, "country3": "AUS", "country2": "AU", "language2": "EN", "language": "English", "season": "season", "country": "Australia", "cast": "Cast", "director": "Director", "producer": "Producers", "screenwriter": "Screenwriter", "studio": "Studio", "copyright": "Copyright"},
 {"storeCode": 143446, "country3": "BEL", "country2": "BE", "language2": "NL", "language": "Nederlands", "season": "season", "country": "België", "cast": "Cast", "director": "Regisseur", "producer": "Producenten", "screenwriter": "Scenarioschrijver", "studio": "Studio", "copyright": "Copyright"},
 {"storeCode": 143446, "country3": "BEL", "country2": "BE", "language2": "FR", "language": "Français", "season": "saison", "country": "Belgique", "cast": "Cast", "director": "Réalisateur", "producer": "Producteurs", "screenwriter": "Scénariste", "studio": "Studio", "copyright": "Copyright"},
 {"storeCode": 143503, "country3": "BRA", "country2": "BR", "language2": "PT", "language": "Português", "season": "season", "country": "Brasil", "cast": "Elenco", "director": "Diretor", "producer": "Produtores", "screenwriter": "Roteirista", "studio": "Estúdio", "copyright": "Direitos autorais"},
 {"storeCode": 143505, "country3": "ARG", "country2": "AR", "language2": "ES", "language": "Español", "season": "season", "country": "Argentina", "cast": "Reparto", "director": "Director", "producer": "Productores", "screenwriter": "Guionista", "studio": "Estudio", "copyright": "Copyright"},
 {"storeCode": 143455, "country3": "CAN", "country2": "CA", "language2": "EN", "language": "English", "season": "season", "country": "Canada", "cast": "Cast", "director": "Director", "producer": "Producers", "screenwriter": "Screenwriter", "studio": "Studio", "copyright": "Copyright"},
 {"storeCode": 143455, "country3": "CAN", "country2": "CA", "language2": "FR", "language": "Français", "season": "saison", "country": "Canada", "cast": "Distribution", "director": "Réalisateur", "producer": "Producteurs", "screenwriter": "Screenwriter", "studio": "Scénariste", "copyright": "Droit d’auteur"},
 {"storeCode": 143458, "country3": "DNK", "country2": "DK", "language2": "DA", "language": "Dansk", "season": "season", "country": "Danmark", "cast": "Medvirkende", "director": "Instruktør", "producer": "Producenter", "screenwriter": "Manuskriptforfatter", "studio": "Filmselskab", "copyright": "Copyright"},
 {"storeCode": 143443, "country3": "DEU", "country2": "DE", "language2": "DE", "language": "Deutsch", "season": "staffel", "country": "Deutschland", "cast": "Besetzung", "director": "Regisseur", "producer": "Produzenten", "screenwriter": "Drehbuchautor", "studio": "Studio", "copyright": "Copyright"},
 {"storeCode": 143454, "country3": "ESP", "country2": "ES", "language2": "ES", "language": "Español", "season": "season", "country": "España", "cast": "Reparto", "director": "Director", "producer": "Productores", "screenwriter": "Guionista", "studio": "Estudio", "copyright": "Copyright"},
 {"storeCode": 143442, "country3": "FRA", "country2": "FR", "language2": "FR", "language": "Français", "season": "saison", "country": "France", "cast": "Distribution", "director": "Réalisateur", "producer": "Producteurs", "screenwriter": "Scénariste", "studio": "Studio", "copyright": "Copyright"},
 {"storeCode": 143448, "country3": "GRC", "country2": "GR", "language2": "HE", "language": "ελληνικά", "season": "season", "country": "Greece", "cast": "Cast", "director": "Director", "producer": "Producers", "screenwriter": "Screenwriter", "studio": "Studio", "copyright": "Copyright"},
 {"storeCode": 143449, "country3": "IRL", "country2": "IE", "language2": "EN", "language": "English", "season": "season", "country": "Ireland", "cast": "Cast", "director": "Director", "producer": "Producers", "screenwriter": "Screenwriter", "studio": "Studio", "copyright": "Copyright"},
 {"storeCode": 143450, "country3": "ITA", "country2": "IT", "language2": "IT", "language": "Italiano", "season": "season", "country": "Italia", "cast": "Cast", "director": "Regista", "producer": "Produttori", "screenwriter": "Sceneggiatore", "studio": "Studio", "copyright": "Copyright"},
 {"storeCode": 143462, "country3": "JPN", "country2": "JP", "language2": "JA", "language": "日本語", "season": "season", "country": "日本", "cast": "キャスト", "director": "監督", "producer": "プロデューサー", "screenwriter": "Screenwriter", "studio": "スタジオ", "copyright": "著作権"},
 {"storeCode": 143470, "country3": "TWN", "country2": "TW", "language2": "ZH", "language": "中文", "season": "season", "country": "台灣", "cast": "Cast", "director": "Director", "producer": "Producers", "screenwriter": "Screenwriter", "studio": "Studio", "copyright": "Copyright"},
 {"storeCode": 143451, "country3": "LUX", "country2": "LU", "language2": "FR", "language": "Français", "season": "saison", "country": "Luxembourg", "cast": "Distribution", "director": "Réalisateur", "producer": "Producteurs", "screenwriter": "Scénariste", "studio": "Studio", "copyright": "Copyright"},
 {"storeCode": 143468, "country3": "MEX", "country2": "MX", "language2": "ES", "language": "Español", "season": "season", "country": "Mexico", "cast": "Reparto", "director": "Director", "producer": "Productores", "screenwriter": "Guionista", "studio": "Estudio", "copyright": "Copyright"},
 {"storeCode": 143452, "country3": "NLD", "country2": "NL", "language2": "NL", "language": "Nederlands", "season": "season", "country": "Nederland", "cast": "Cast", "director": "Regisseur", "producer": "Producenten", "screenwriter": "Scenarioschrijver", "studio": "Studio", "copyright": "Copyright"},
 {"storeCode": 143461, "country3": "NZL", "country2": "NZ", "language2": "EN", "language": "English", "season": "season", "country": "New Zealand", "cast": "Cast", "director": "Director", "producer": "Producers", "screenwriter": "Screenwriter", "studio": "Studio", "copyright": "Copyright"},
 {"storeCode": 143457, "country3": "NOR", "country2": "NO", "language2": "NO", "language": "Norsk", "season": "season", "country": "Norge", "cast": "Cast", "director": "Director", "producer": "Producers", "screenwriter": "Screenwriter", "studio": "Studio", "copyright": "Copyright"},
 {"storeCode": 143453, "country3": "PRT", "country2": "PT", "language2": "PT", "language": "Português", "season": "season", "country": "Portugal", "cast": "Elenco", "director": "Realizador", "producer": "Produtores", "screenwriter": "Argumentistas", "studio": "Estúdio", "copyright": "Copyright"},
 {"storeCode": 143459, "country3": "CHE", "country2": "CH", "language2": "DE", "language": "Deutsch", "season": "staffel", "country": "Schweiz", "cast": "Besetzung", "director": "Regisseur", "producer": "Produzenten", "screenwriter": "Drehbuchautor", "studio": "Studio", "copyright": "Copyright"},
 {"storeCode": 143459, "country3": "CHE", "country2": "CH", "language2": "FR", "language": "Français", "season": "saison", "country": "Suisse", "cast": "Distribution", "director": "Réalisateur", "producer": "Producteurs", "screenwriter": "Scénariste", "studio": "Studio", "copyright": "Copyright"},
 {"storeCode": 143447, "country3": "FIN", "country2": "FI", "language2": "FI", "language": "Suomi", "season": "season", "country": "Suomi", "cast": "Näyttelijät", "director": "Ohjaaja", "producer": "Tuottajat", "screenwriter": "Käsikirjoittaja", "studio": "Studio", "copyright": "Copyright"},
 {"storeCode": 143456, "country3": "SWE", "country2": "SE", "language2": "SV", "language": "Svenska", "season": "season", "country": "Sverige", "cast": "Medverkande", "director": "Regissör", "producer": "Producenter", "screenwriter": "Manus", "studio": "Filmbolag", "copyright": "Copyright"},
 {"storeCode": 143444, "country3": "GBR", "country2": "GB", "language2": "EN", "language": "English", "season": "season", "country": "UK", "cast": "Cast", "director": "Director", "producer": "Producers", "screenwriter": "Screenwriter", "studio": "Studio", "copyright": "Copyright"},
 {"storeCode": 143469, "country3": "RUS", "country2": "RU", "language2": "RU", "language": "Pусский", "season": "сезон", "country": "Россия", "cast": "В ролях", "director": "Режиссеры", "producer": "Продюсеры", "screenwriter": "Сценарий", "studio": "Студия", "copyright": "Copyright"},
 {"storeCode": 143474, "country3": "PHL", "country2": "PH", "language2": "EN", "language": "Pilipino", "season": "season", "country": "Pilipinas", "cast": "Cast", "director": "Director", "producer": "Producers", "screenwriter": "Screenwriter", "studio": "Studio", "copyright": "Copyright"},
 {"storeCode": 143463, "country3": "HKG", "country2": "HK", "language2": "EN", "language": "English", "season": "season", "country": "Hong Kong", "cast": "Cast", "director": "Director", "producer": "Producers", "screenwriter": "Screenwriter", "studio": "Studio", "copyright": "Copyright"},
 {"storeCode": 143489, "country3": "CZE", "country2": "CZ", "language2": "EN", "language": "Čeština", "season": "season", "country": "Česká republika", "cast": "Cast", "director": "Director", "producer": "Producers", "screenwriter": "Screenwriter", "studio": "Studio", "copyright": "Copyright"},
 {"storeCode": 143467, "country3": "IND", "country2": "IN", "language2": "EN", "language": "English", "season": "season", "country": "India", "cast": "Cast", "director": "Director", "producer": "Producers", "screenwriter": "Screenwriter", "studio": "Studio", "copyright": "Copyright"},

]
